Assessment WB
…
`summarise()` has grouped output by 'region'. You can override using the
`.groups` argument.

print(GDP_byregion)

# A tibble: 218 × 7
# Groups:   region [7]
   region               year     N  Mean    SD   Min    Max
   <chr>               <dbl> <int> <dbl> <dbl> <dbl>  <dbl>
 1 East Asia & Pacific  1990    22 4913. 8497.  582. 32846.
 2 East Asia & Pacific  1991    22 5105. 8691.  579. 33870.
 3 East Asia & Pacific  1992    22 5291. 8667.  597. 34049.
 4 East Asia & Pacific  1993    22 5483. 8576.  635. 33783.
 5 East Asia & Pacific  1994    22 5740. 8619.  669. 34054.
 6 East Asia & Pacific  1995    22 6037. 8796.  709. 34868.
 7 East Asia & Pacific  1996    22 6340. 9011.  746. 35879.
 8 East Asia & Pacific  1997    22 6538. 9045.  782. 36145.
 9 East Asia & Pacific  1998    22 6449. 8823.  817. 36099.
10 East Asia & Pacific  1999    22 6635. 8836.  875. 37476.
# ℹ 208 more rows
…
`summarise()` has grouped output by 'region'. You can override using the
`.groups` argument.

print(aggregate_estimates)

# A tibble: 1,090 × 7
# Groups:   region [7]
   estimate region               date        pop lifeex   gdp pov_intl
   <chr>    <chr>               <dbl>      <dbl>  <dbl> <dbl>    <dbl>
 1 mean     East Asia & Pacific  1990 1754166013   68.2 4913.    0.590
 2 mean     East Asia & Pacific  1991 1779284317   68.4 5105.    0.573
 3 mean     East Asia & Pacific  1992 1802946756   68.9 5291.    0.550
 4 mean     East Asia & Pacific  1993 1825777375   69.3 5483.    0.523
 5 mean     East Asia & Pacific  1994 1848480100   69.6 5740.    0.483
 6 mean     East Asia & Pacific  1995 1870755748   70.0 6037.    0.450
 7 mean     East Asia & Pacific  1996 1892721009   70.3 6340.    0.410
 8 mean     East Asia & Pacific  1997 1914534267   70.7 6538.    0.408
 9 mean     East Asia & Pacific  1998 1935514675   71.1 6449.    0.417
10 mean     East Asia & Pacific  1999 1955084080   71.3 6635.    0.386
# ℹ 1,080 more rows
…
         mean_gini = weighted.mean(gini, pop, na.rm = TRUE),
         sd_gini = weighted.sd(gini, pop, na.rm = TRUE),
         z_gini = (gini - mean_gini) / sd_gini,
         hl_gini = abs(z_gini) < -2.5,  # True if above 2.5 SD
         ll_gini = abs(z_gini) > 2.5  # True if below 2.5 SD
         ) |>
  select(!(starts_with("z_"))
         
  )

  print(outliers)

# A tibble: 5,029 × 24
# Groups:   date [32]
   region        iso3c  date country pov_ofcl   gdp  gini lifeex    pop pov_intl
   <chr>         <chr> <dbl> <chr>      <dbl> <dbl> <dbl>  <dbl>  <dbl>    <dbl>
 1 Sub-Saharan … AGO    1990 Angola        NA 5793.    NA   41.9 1.18e7    0.165
 2 Sub-Saharan … AGO    1991 Angola        NA 5659.    NA   43.8 1.22e7    0.168
 3 Sub-Saharan … AGO    1992 Angola        NA 5158.    NA   42.2 1.26e7    0.192
 4 Sub-Saharan … AGO    1993 Angola        NA 3799.    NA   42.1 1.30e7    0.274
 5 Sub-Saharan … AGO    1994 Angola        NA 3729.    NA   43.4 1.35e7    0.279
 6 Sub-Saharan … AGO    1995 Angola        NA 4149.    NA   45.8 1.39e7    0.249
 7 Sub-Saharan … AGO    1996 Angola        NA 4557.    NA   46.0 1.44e7    0.226
 8 Sub-Saharan … AGO    1997 Angola        NA 4728.    NA   46.3 1.49e7    0.215
 9 Sub-Saharan … AGO    1998 Angola        NA 4790.    NA   45.1 1.54e7    0.212
10 Sub-Saharan … AGO    1999 Angola        NA 4740.    NA   45.4 1.59e7    0.214
# ℹ 5,019 more rows
# ℹ 14 more variables: pov_lmic <dbl>, pov_umic <dbl>, mean_lifeex <dbl>,
#   sd_lifeex <dbl>, hl_lifeex <lgl>, ll_lifeex <lgl>, mean_gdp <dbl>,
#   sd_gdp <dbl>, hl_gdp <lgl>, ll_gdp <lgl>, mean_gini <dbl>, sd_gini <dbl>,
#   hl_gini <lgl>, ll_gini <lgl>
…
   poverty_indicators <- pov_line |>
     map_df(~ calculate_FGT(svy_2001_2010, .))

     print(poverty_indicators)

# A tibble: 30 × 5
    Year   headcount  pov_gap povseverity poverty_line
   <int>       <dbl>    <dbl>       <dbl>        <dbl>
 1  2001 0.542       4.23e- 1    3.80e- 1         2.15
 2  2002 0.498       3.61e- 1    3.13e- 1         2.15
 3  2003 0.450       2.95e- 1    2.41e- 1         2.15
 4  2004 0.389       2.16e- 1    1.58e- 1         2.15
 5  2005 0.319       1.34e- 1    7.73e- 2         2.15
 6  2006 0.227       6.55e- 2    2.66e- 2         2.15
 7  2007 0.124       2.14e- 2    5.40e- 3         2.15
 8  2008 0.0274      1.99e- 3    2.21e- 4         2.15
 9  2009 0.000000328 7.07e-10    2.14e-12         2.15
10  2010 0           0           0                2.15
# ℹ 20 more rows
…
      group_by(Year) |>
      mutate (mean_welfare = welfare/total_income_, 
          cum_population = cumsum(prop_population),
          cum_welfare = cumsum(mean_welfare)
  ) |>
       
       select(welfare, cum_welfare, cum_population, Year, bin)

`summarise()` has grouped output by 'Year'. You can override using the
`.groups` argument.

      print(svy_2001_2010_lorenz )

# A tibble: 1,000 × 5
# Groups:   Year [10]
   welfare cum_welfare cum_population  Year   bin
     <dbl>       <dbl>          <dbl> <int> <dbl>
 1       0           0           0.01  2001     1
 2       0           0           0.02  2001     2
 3       0           0           0.03  2001     3
 4       0           0           0.04  2001     4
 5       0           0           0.05  2001     5
 6       0           0           0.06  2001     6
 7       0           0           0.07  2001     7
 8       0           0           0.08  2001     8
 9       0           0           0.09  2001     9
10       0           0           0.1   2001    10
# ℹ 990 more rows
…
